{
  "info" : {
    "author" : "xcode",
    "version" : "1"
  },
  "images" : [
    {
      "idiom" : "universal",
      "scale" : "1x",
      "filename" : "airplane-mode-.png"
    },
    {
      "idiom" : "universal",
      "scale" : "2x",
      "filename" : "airplane-mode-@2x.png"
    },
    {
      "idiom" : "universal",
      "scale" : "3x",
      "filename" : "airplane-mode-@3x.png"
    }
  ]
}